{
  "createdWith": "Open Stage Control",
  "version": "1.26.2",
  "type": "session",
  "content": {
    "type": "root",
    "lock": false,
    "id": "root",
    "visible": true,
    "interaction": true,
    "comments": "",
    "width": "auto",
    "height": "auto",
    "colorText": "auto",
    "colorWidget": "auto",
    "alphaFillOn": "auto",
    "borderRadius": "auto",
    "padding": "auto",
    "html": "",
    "css": "",
    "colorBg": "auto",
    "layout": "default",
    "justify": "start",
    "gridTemplate": "",
    "contain": true,
    "scroll": true,
    "innerPadding": true,
    "tabsPosition": "top",
    "hideMenu": false,
    "variables": "@{parent.variables}",
    "traversing": false,
    "value": "",
    "default": "",
    "linkId": "",
    "address": "auto",
    "preArgs": "",
    "typeTags": "",
    "decimals": 2,
    "target": "",
    "ignoreDefaults": false,
    "bypass": false,
    "onCreate": "",
    "onValue": "",
    "onPreload": "",
    "widgets": [
      {
        "type": "visualizer",
        "top": 10,
        "left": 150,
        "lock": false,
        "id": "ax",
        "visible": true,
        "comments": "",
        "width": "auto",
        "height": 390,
        "expand": "false",
        "colorText": "auto",
        "colorWidget": "auto",
        "colorStroke": "auto",
        "colorFill": "auto",
        "alphaStroke": "auto",
        "alphaFillOff": "auto",
        "alphaFillOn": "auto",
        "lineWidth": "auto",
        "borderRadius": "auto",
        "padding": "auto",
        "html": "",
        "css": "",
        "pips": true,
        "rangeX": {
          "min": 0,
          "max": 1
        },
        "rangeY": {
          "min": -1,
          "max": 1
        },
        "logScaleX": false,
        "logScaleY": false,
        "origin": "auto",
        "duration": 1,
        "framerate": 30,
        "freeze": false,
        "value": "",
        "default": "",
        "linkId": "",
        "address": "/imu/ax",
        "preArgs": "",
        "target": "",
        "onCreate": "",
        "onValue": ""
      },
      {
        "type": "text",
        "top": 170,
        "left": 10,
        "lock": false,
        "id": "text_1",
        "visible": true,
        "comments": "",
        "width": 130,
        "height": "auto",
        "expand": "false",
        "colorText": "auto",
        "colorWidget": "auto",
        "colorStroke": "auto",
        "colorFill": "auto",
        "alphaStroke": "auto",
        "alphaFillOff": "auto",
        "alphaFillOn": "auto",
        "lineWidth": "auto",
        "borderRadius": "auto",
        "padding": "auto",
        "html": "",
        "css": "",
        "vertical": false,
        "wrap": false,
        "align": "center",
        "value": "Acceleration",
        "default": "",
        "linkId": "",
        "address": "auto",
        "preArgs": "",
        "decimals": 2,
        "target": "",
        "onCreate": "",
        "onValue": ""
      },
      {
        "type": "visualizer",
        "top": 10,
        "left": 360,
        "lock": false,
        "id": "ay",
        "visible": true,
        "comments": "",
        "width": "auto",
        "height": 390,
        "expand": "false",
        "colorText": "auto",
        "colorWidget": "auto",
        "colorStroke": "auto",
        "colorFill": "auto",
        "alphaStroke": "auto",
        "alphaFillOff": "auto",
        "alphaFillOn": "auto",
        "lineWidth": "auto",
        "borderRadius": "auto",
        "padding": "auto",
        "html": "",
        "css": "",
        "pips": true,
        "rangeX": {
          "min": 0,
          "max": 1
        },
        "rangeY": {
          "min": -1,
          "max": 1
        },
        "logScaleX": false,
        "logScaleY": false,
        "origin": "auto",
        "duration": 1,
        "framerate": 30,
        "freeze": false,
        "value": "",
        "default": "",
        "linkId": "",
        "address": "/imu/ay",
        "preArgs": "",
        "target": "",
        "onCreate": "",
        "onValue": ""
      },
      {
        "type": "text",
        "top": 410,
        "left": 410,
        "lock": false,
        "id": "text_2",
        "visible": true,
        "comments": "",
        "width": "auto",
        "height": "auto",
        "expand": "false",
        "colorText": "auto",
        "colorWidget": "auto",
        "colorStroke": "auto",
        "colorFill": "auto",
        "alphaStroke": "auto",
        "alphaFillOff": "auto",
        "alphaFillOn": "auto",
        "lineWidth": "auto",
        "borderRadius": "auto",
        "padding": "auto",
        "html": "",
        "css": "",
        "vertical": false,
        "wrap": false,
        "align": "center",
        "value": "Y",
        "default": "",
        "linkId": "",
        "address": "auto",
        "preArgs": "",
        "decimals": 2,
        "target": "",
        "onCreate": "",
        "onValue": ""
      },
      {
        "type": "text",
        "top": 410,
        "left": 630,
        "lock": false,
        "id": "text_3",
        "visible": true,
        "comments": "",
        "width": "auto",
        "height": "auto",
        "expand": "false",
        "colorText": "auto",
        "colorWidget": "auto",
        "colorStroke": "auto",
        "colorFill": "auto",
        "alphaStroke": "auto",
        "alphaFillOff": "auto",
        "alphaFillOn": "auto",
        "lineWidth": "auto",
        "borderRadius": "auto",
        "padding": "auto",
        "html": "",
        "css": "",
        "vertical": false,
        "wrap": false,
        "align": "center",
        "value": "Z",
        "default": "",
        "linkId": "",
        "address": "auto",
        "preArgs": "",
        "decimals": 2,
        "target": "",
        "onCreate": "",
        "onValue": ""
      },
      {
        "type": "visualizer",
        "top": 10,
        "left": 570,
        "lock": false,
        "id": "az",
        "visible": true,
        "comments": "",
        "width": "auto",
        "height": 390,
        "expand": "false",
        "colorText": "auto",
        "colorWidget": "auto",
        "colorStroke": "auto",
        "colorFill": "auto",
        "alphaStroke": "auto",
        "alphaFillOff": "auto",
        "alphaFillOn": "auto",
        "lineWidth": "auto",
        "borderRadius": "auto",
        "padding": "auto",
        "html": "",
        "css": "",
        "pips": true,
        "rangeX": {
          "min": 0,
          "max": 1
        },
        "rangeY": {
          "min": -1,
          "max": 1
        },
        "logScaleX": false,
        "logScaleY": false,
        "origin": "auto",
        "duration": 1,
        "framerate": 30,
        "freeze": false,
        "value": "",
        "default": "",
        "linkId": "",
        "address": "/imu/az",
        "preArgs": "",
        "target": "",
        "onCreate": "",
        "onValue": ""
      },
      {
        "type": "visualizer",
        "top": 480,
        "left": 150,
        "lock": false,
        "id": "gx",
        "visible": true,
        "comments": "",
        "width": "auto",
        "height": 390,
        "expand": "false",
        "colorText": "auto",
        "colorWidget": "auto",
        "colorStroke": "auto",
        "colorFill": "auto",
        "alphaStroke": "auto",
        "alphaFillOff": "auto",
        "alphaFillOn": "auto",
        "lineWidth": "auto",
        "borderRadius": "auto",
        "padding": "auto",
        "html": "",
        "css": "",
        "pips": true,
        "rangeX": {
          "min": 0,
          "max": 1
        },
        "rangeY": {
          "min": -500,
          "max": 500
        },
        "logScaleX": false,
        "logScaleY": false,
        "origin": "auto",
        "duration": 1,
        "framerate": 30,
        "freeze": false,
        "value": "",
        "default": "",
        "linkId": "",
        "address": "/imu/gx",
        "preArgs": "",
        "target": "",
        "onCreate": "",
        "onValue": ""
      },
      {
        "type": "visualizer",
        "top": 480,
        "left": 360,
        "lock": false,
        "id": "gy",
        "visible": true,
        "comments": "",
        "width": "auto",
        "height": 390,
        "expand": "false",
        "colorText": "auto",
        "colorWidget": "auto",
        "colorStroke": "auto",
        "colorFill": "auto",
        "alphaStroke": "auto",
        "alphaFillOff": "auto",
        "alphaFillOn": "auto",
        "lineWidth": "auto",
        "borderRadius": "auto",
        "padding": "auto",
        "html": "",
        "css": "",
        "pips": true,
        "rangeX": {
          "min": 0,
          "max": 1
        },
        "rangeY": {
          "min": -500,
          "max": 500
        },
        "logScaleX": false,
        "logScaleY": false,
        "origin": "auto",
        "duration": 1,
        "framerate": 30,
        "freeze": false,
        "value": "",
        "default": "",
        "linkId": "",
        "address": "/imu/gy",
        "preArgs": "",
        "target": "",
        "onCreate": "",
        "onValue": ""
      },
      {
        "type": "visualizer",
        "top": 480,
        "left": 570,
        "lock": false,
        "id": "gz",
        "visible": true,
        "comments": "",
        "width": "auto",
        "height": 390,
        "expand": "false",
        "colorText": "auto",
        "colorWidget": "auto",
        "colorStroke": "auto",
        "colorFill": "auto",
        "alphaStroke": "auto",
        "alphaFillOff": "auto",
        "alphaFillOn": "auto",
        "lineWidth": "auto",
        "borderRadius": "auto",
        "padding": "auto",
        "html": "",
        "css": "",
        "pips": true,
        "rangeX": {
          "min": 0,
          "max": 1
        },
        "rangeY": {
          "min": -500,
          "max": 500
        },
        "logScaleX": false,
        "logScaleY": false,
        "origin": "auto",
        "duration": 1,
        "framerate": 30,
        "freeze": false,
        "value": "",
        "default": "",
        "linkId": "",
        "address": "/imu/gz",
        "preArgs": "",
        "target": "",
        "onCreate": "",
        "onValue": ""
      },
      {
        "type": "text",
        "top": 630,
        "left": 10,
        "lock": false,
        "id": "text_4",
        "visible": true,
        "comments": "",
        "width": 130,
        "height": "auto",
        "expand": "false",
        "colorText": "auto",
        "colorWidget": "auto",
        "colorStroke": "auto",
        "colorFill": "auto",
        "alphaStroke": "auto",
        "alphaFillOff": "auto",
        "alphaFillOn": "auto",
        "lineWidth": "auto",
        "borderRadius": "auto",
        "padding": "auto",
        "html": "",
        "css": "",
        "vertical": false,
        "wrap": false,
        "align": "center",
        "value": "Gyroscope",
        "default": "",
        "linkId": "",
        "address": "auto",
        "preArgs": "",
        "decimals": 2,
        "target": "",
        "onCreate": "",
        "onValue": ""
      },
      {
        "type": "text",
        "top": 410,
        "left": 210,
        "lock": false,
        "id": "text_5",
        "visible": true,
        "comments": "",
        "width": "auto",
        "height": "auto",
        "expand": "false",
        "colorText": "auto",
        "colorWidget": "auto",
        "colorStroke": "auto",
        "colorFill": "auto",
        "alphaStroke": "auto",
        "alphaFillOff": "auto",
        "alphaFillOn": "auto",
        "lineWidth": "auto",
        "borderRadius": "auto",
        "padding": "auto",
        "html": "",
        "css": "",
        "vertical": false,
        "wrap": false,
        "align": "center",
        "value": "X",
        "default": "",
        "linkId": "",
        "address": "auto",
        "preArgs": "",
        "decimals": 2,
        "target": "",
        "onCreate": "",
        "onValue": ""
      },
      {
        "type": "dropdown",
        "top": 10,
        "left": 910,
        "lock": false,
        "id": "/led/mode",
        "visible": true,
        "interaction": true,
        "comments": "",
        "width": 230,
        "height": "auto",
        "expand": "false",
        "colorText": "auto",
        "colorWidget": "auto",
        "colorStroke": "auto",
        "colorFill": "auto",
        "alphaStroke": "auto",
        "alphaFillOff": "auto",
        "alphaFillOn": "auto",
        "lineWidth": "auto",
        "borderRadius": "auto",
        "padding": "auto",
        "html": "",
        "css": "",
        "label": "auto",
        "icon": "true",
        "align": "center",
        "values": {
          "FX_MODE_STATIC": 0,
          "FX_MODE_BLINK": 1,
          "FX_MODE_BREATH": 2,
          "FX_MODE_COLOR_WIPE": 3,
          "FX_MODE_COLOR_WIPE_INV": 4,
          "FX_MODE_COLOR_WIPE_REV": 5,
          "FX_MODE_COLOR_WIPE_REV_INV": 6,
          "FX_MODE_COLOR_WIPE_RANDOM": 7,
          "FX_MODE_RANDOM_COLOR": 8,
          "FX_MODE_SINGLE_DYNAMIC": 9,
          "FX_MODE_MULTI_DYNAMIC": 10,
          "FX_MODE_RAINBOW": 11,
          "FX_MODE_RAINBOW_CYCLE": 12,
          "FX_MODE_SCAN": 13,
          "FX_MODE_DUAL_SCAN": 14,
          "FX_MODE_FADE": 15,
          "FX_MODE_THEATER_CHASE": 16,
          "FX_MODE_THEATER_CHASE_RAINBOW": 17,
          "FX_MODE_RUNNING_LIGHTS": 18,
          "FX_MODE_TWINKLE": 19,
          "FX_MODE_TWINKLE_RANDOM": 20,
          "FX_MODE_TWINKLE_FADE": 21,
          "FX_MODE_TWINKLE_FADE_RANDOM": 22,
          "FX_MODE_SPARKLE": 23,
          "FX_MODE_FLASH_SPARKLE": 24,
          "FX_MODE_HYPER_SPARKLE": 25,
          "FX_MODE_STROBE": 26,
          "FX_MODE_STROBE_RAINBOW": 27,
          "FX_MODE_MULTI_STROBE": 28,
          "FX_MODE_BLINK_RAINBOW": 29,
          "FX_MODE_CHASE_WHITE": 30,
          "FX_MODE_CHASE_COLOR": 31,
          "FX_MODE_CHASE_RANDOM": 32,
          "FX_MODE_CHASE_RAINBOW": 33,
          "FX_MODE_CHASE_FLASH": 34,
          "FX_MODE_CHASE_FLASH_RANDOM": 35,
          "FX_MODE_CHASE_RAINBOW_WHITE": 36,
          "FX_MODE_CHASE_BLACKOUT": 37,
          "FX_MODE_CHASE_BLACKOUT_RAINBOW": 38,
          "FX_MODE_COLOR_SWEEP_RANDOM": 39,
          "FX_MODE_RUNNING_COLOR": 40,
          "FX_MODE_RUNNING_RED_BLUE": 41,
          "FX_MODE_RUNNING_RANDOM": 42,
          "FX_MODE_LARSON_SCANNER": 43,
          "FX_MODE_COMET": 44,
          "FX_MODE_FIREWORKS": 45,
          "FX_MODE_FIREWORKS_RANDOM": 46,
          "FX_MODE_MERRY_CHRISTMAS": 47,
          "FX_MODE_FIRE_FLICKER": 48,
          "FX_MODE_FIRE_FLICKER_SOFT": 49,
          "FX_MODE_FIRE_FLICKER_INTENSE": 50,
          "FX_MODE_CIRCUS_COMBUSTUS": 51,
          "FX_MODE_HALLOWEEN": 52,
          "FX_MODE_BICOLOR_CHASE": 53,
          "FX_MODE_TRICOLOR_CHASE": 54,
          "FX_MODE_TWINKLEFOX": 55,
          "FX_MODE_RAIN": 56,
          "FX_MODE_BLOCK_DISSOLVE": 57,
          "FX_MODE_ICU": 58,
          "FX_MODE_DUAL_LARSON": 59,
          "FX_MODE_RUNNING_RANDOM2": 60,
          "FX_MODE_FILLER_UP": 61,
          "FX_MODE_RAINBOW_LARSON": 62,
          "FX_MODE_RAINBOW_FIREWORKS": 63,
          "FX_MODE_TRIFADE": 64,
          "FX_MODE_VU_METER": 65,
          "FX_MODE_HEARTBEAT": 66,
          "FX_MODE_BITS": 67,
          "FX_MODE_MULTI_COMET": 68,
          "FX_MODE_FLIPBOOK": 69,
          "FX_MODE_POPCORN": 70,
          "FX_MODE_OSCILLATOR": 71
        },
        "value": 0,
        "default": "",
        "linkId": "",
        "address": "/led/mode",
        "preArgs": "",
        "typeTags": "int32",
        "decimals": 2,
        "target": "",
        "ignoreDefaults": false,
        "bypass": false,
        "onCreate": "",
        "onValue": ""
      },
      {
        "type": "text",
        "top": 10,
        "left": 790,
        "lock": false,
        "id": "text_6",
        "visible": true,
        "comments": "",
        "width": 110,
        "height": 30,
        "expand": "false",
        "colorText": "auto",
        "colorWidget": "auto",
        "colorStroke": "auto",
        "colorFill": "auto",
        "alphaStroke": "auto",
        "alphaFillOff": "auto",
        "alphaFillOn": "auto",
        "lineWidth": "auto",
        "borderRadius": "auto",
        "padding": "auto",
        "html": "",
        "css": "",
        "vertical": false,
        "wrap": false,
        "align": "center",
        "value": "LED strip type",
        "default": "",
        "linkId": "",
        "address": "auto",
        "preArgs": "",
        "decimals": 2,
        "target": "",
        "onCreate": "",
        "onValue": ""
      },
      {
        "type": "rgb",
        "top": 60,
        "left": 910,
        "lock": false,
        "id": "rgb_1",
        "visible": true,
        "interaction": true,
        "comments": "",
        "width": 230,
        "height": "auto",
        "expand": "false",
        "colorText": "auto",
        "colorWidget": "auto",
        "colorStroke": "auto",
        "colorFill": "auto",
        "alphaStroke": "auto",
        "alphaFillOff": "auto",
        "alphaFillOn": "auto",
        "lineWidth": "auto",
        "borderRadius": "auto",
        "padding": "auto",
        "html": "",
        "css": "",
        "snap": false,
        "spring": false,
        "range": {
          "min": 0,
          "max": 255
        },
        "alpha": false,
        "rangeAlpha": {
          "min": 0,
          "max": 1
        },
        "value": "",
        "default": "",
        "linkId": "",
        "address": "/led/color",
        "preArgs": "",
        "typeTags": "iii",
        "decimals": 2,
        "target": "",
        "ignoreDefaults": false,
        "bypass": false,
        "onCreate": "",
        "onValue": "",
        "onTouch": ""
      },
      {
        "type": "text",
        "top": 60,
        "left": 790,
        "lock": false,
        "id": "text_7",
        "visible": true,
        "comments": "",
        "width": 110,
        "height": 30,
        "expand": "false",
        "colorText": "auto",
        "colorWidget": "auto",
        "colorStroke": "auto",
        "colorFill": "auto",
        "alphaStroke": "auto",
        "alphaFillOff": "auto",
        "alphaFillOn": "auto",
        "lineWidth": "auto",
        "borderRadius": "auto",
        "padding": "auto",
        "html": "",
        "css": "",
        "vertical": false,
        "wrap": false,
        "align": "center",
        "value": "LED strip color",
        "default": "",
        "linkId": "",
        "address": "auto",
        "preArgs": "",
        "decimals": 2,
        "target": "",
        "onCreate": "",
        "onValue": ""
      },
      {
        "type": "fader",
        "top": 280,
        "left": 950,
        "lock": false,
        "id": "fader_1",
        "visible": true,
        "interaction": true,
        "comments": "",
        "width": 40,
        "height": 310,
        "expand": "false",
        "colorText": "auto",
        "colorWidget": "auto",
        "colorStroke": "auto",
        "colorFill": "auto",
        "alphaStroke": "auto",
        "alphaFillOff": "auto",
        "alphaFillOn": "auto",
        "lineWidth": "auto",
        "borderRadius": "auto",
        "padding": "auto",
        "html": "",
        "css": "",
        "design": "default",
        "knobSize": "auto",
        "colorKnob": "auto",
        "horizontal": false,
        "pips": false,
        "dashed": false,
        "gradient": [],
        "snap": false,
        "spring": false,
        "doubleTap": false,
        "range": {
          "min": 0,
          "max": 255
        },
        "logScale": false,
        "sensitivity": 1,
        "steps": "",
        "origin": "auto",
        "value": "",
        "default": "",
        "linkId": "",
        "address": "/led/brightness",
        "preArgs": "",
        "typeTags": "i",
        "decimals": 2,
        "target": "",
        "ignoreDefaults": false,
        "bypass": false,
        "onCreate": "",
        "onValue": "",
        "onTouch": ""
      },
      {
        "type": "text",
        "top": 280,
        "left": 790,
        "lock": false,
        "id": "text_9",
        "visible": true,
        "comments": "",
        "width": 150,
        "height": 30,
        "expand": "false",
        "colorText": "auto",
        "colorWidget": "auto",
        "colorStroke": "auto",
        "colorFill": "auto",
        "alphaStroke": "auto",
        "alphaFillOff": "auto",
        "alphaFillOn": "auto",
        "lineWidth": "auto",
        "borderRadius": "auto",
        "padding": "auto",
        "html": "",
        "css": "",
        "vertical": false,
        "wrap": false,
        "align": "center",
        "value": "LED strip brightness",
        "default": "",
        "linkId": "",
        "address": "auto",
        "preArgs": "",
        "decimals": 2,
        "target": "",
        "onCreate": "",
        "onValue": ""
      },
      {
        "type": "text",
        "top": 280,
        "left": 1000,
        "lock": false,
        "id": "text_10",
        "visible": true,
        "comments": "",
        "width": 120,
        "height": 30,
        "expand": "false",
        "colorText": "auto",
        "colorWidget": "auto",
        "colorStroke": "auto",
        "colorFill": "auto",
        "alphaStroke": "auto",
        "alphaFillOff": "auto",
        "alphaFillOn": "auto",
        "lineWidth": "auto",
        "borderRadius": "auto",
        "padding": "auto",
        "html": "",
        "css": "",
        "vertical": false,
        "wrap": false,
        "align": "center",
        "value": "LED strip velocity",
        "default": "",
        "linkId": "",
        "address": "auto",
        "preArgs": "",
        "decimals": 2,
        "target": "",
        "onCreate": "",
        "onValue": ""
      },
      {
        "type": "fader",
        "top": 280,
        "left": 1130,
        "lock": false,
        "id": "fader_2",
        "visible": true,
        "interaction": true,
        "comments": "",
        "width": 30,
        "height": 310,
        "expand": "false",
        "colorText": "auto",
        "colorWidget": "auto",
        "colorStroke": "auto",
        "colorFill": "auto",
        "alphaStroke": "auto",
        "alphaFillOff": "auto",
        "alphaFillOn": "auto",
        "lineWidth": "auto",
        "borderRadius": "auto",
        "padding": "auto",
        "html": "",
        "css": "",
        "design": "default",
        "knobSize": "auto",
        "colorKnob": "auto",
        "horizontal": false,
        "pips": false,
        "dashed": false,
        "gradient": [],
        "snap": false,
        "spring": false,
        "doubleTap": false,
        "range": {
          "min": 0,
          "max": 255
        },
        "logScale": false,
        "sensitivity": 1,
        "steps": "",
        "origin": "auto",
        "value": "",
        "default": "",
        "linkId": "",
        "address": "/led/speed",
        "preArgs": "",
        "typeTags": "i",
        "decimals": 2,
        "target": "",
        "ignoreDefaults": false,
        "bypass": false,
        "onCreate": "",
        "onValue": "",
        "onTouch": ""
      }
    ],
    "tabs": []
  }
}